digraph "Sokoban.WpfApp.Controls.SokobanControl.OnRender"
{
 // LATEX_PDF_SIZE
  edge [fontname="Helvetica",fontsize="10",labelfontname="Helvetica",labelfontsize="10"];
  node [fontname="Helvetica",fontsize="10",shape=record];
  rankdir="LR";
  Node2 [label="Sokoban.WpfApp.Controls.\lSokobanControl.OnRender",height=0.2,width=0.4,color="black", fillcolor="grey75", style="filled", fontcolor="black",tooltip="Override the renderer to own."];
  Node2 -> Node3 [color="midnightblue",fontsize="10",style="solid",fontname="Helvetica"];
  Node3 [label="Sokoban.Renderer.GameRenderer.\lBuildDrawing",height=0.2,width=0.4,color="black", fillcolor="white", style="filled",URL="$class_sokoban_1_1_renderer_1_1_game_renderer.html#a7ae28f9fbcdb512334ac21cf67882c95",tooltip="Build a drowing group."];
}
