digraph "Sokoban.WpfApp.Windows.MainWindow.MainWindow"
{
 // LATEX_PDF_SIZE
  edge [fontname="Helvetica",fontsize="10",labelfontname="Helvetica",labelfontsize="10"];
  node [fontname="Helvetica",fontsize="10",shape=record];
  rankdir="LR";
  Node0 [label="Sokoban.WpfApp.Windows.Main\lWindow.MainWindow",height=0.2,width=0.4,color="black", fillcolor="grey75", style="filled", fontcolor="black",tooltip="Initializes a new instance of the MainWindow class."];
  Node0 -> Node1 [color="midnightblue",fontsize="10",style="solid",fontname="Helvetica"];
  Node1 [label="Sokoban.WpfApp.Windows.Main\lWindow.InitializeComponent",height=0.2,width=0.4,color="black", fillcolor="white", style="filled",URL="$class_sokoban_1_1_wpf_app_1_1_windows_1_1_main_window.html#a79bf791009042a2ae7fc1d4c3bb7e60b",tooltip="InitializeComponent"];
}
