digraph "Sokoban.Logic.LevelLogic"
{
 // LATEX_PDF_SIZE
  edge [fontname="Helvetica",fontsize="10",labelfontname="Helvetica",labelfontsize="10"];
  node [fontname="Helvetica",fontsize="10",shape=record];
  Node0 [label="Sokoban.Logic.LevelLogic",height=0.2,width=0.4,color="black", fillcolor="grey75", style="filled", fontcolor="black",tooltip="LevelLogic."];
  Node1 -> Node0 [dir="back",color="midnightblue",fontsize="10",style="solid",fontname="Helvetica"];
  Node1 [label="ILevelLogic",height=0.2,width=0.4,color="black", fillcolor="white", style="filled",URL="$interface_sokoban_1_1_logic_1_1_i_level_logic.html",tooltip="ILevelLogic interface."];
}
