digraph "Sokoban.ViewModel.UserViewModel.UserViewModel"
{
 // LATEX_PDF_SIZE
  edge [fontname="Helvetica",fontsize="10",labelfontname="Helvetica",labelfontsize="10"];
  node [fontname="Helvetica",fontsize="10",shape=record];
  rankdir="LR";
  Node0 [label="Sokoban.ViewModel.UserView\lModel.UserViewModel",height=0.2,width=0.4,color="black", fillcolor="grey75", style="filled", fontcolor="black",tooltip="Initializes a new instance of the UserViewModel class."];
  Node0 -> Node1 [color="midnightblue",fontsize="10",style="solid",fontname="Helvetica"];
  Node1 [label="Sokoban.Logic.IUserLogic.\lLoadUser",height=0.2,width=0.4,color="black", fillcolor="white", style="filled",URL="$interface_sokoban_1_1_logic_1_1_i_user_logic.html#a242ef3e84bf304a1e0fa2b1d2054cd89",tooltip="Get user from repo."];
  Node0 -> Node2 [color="midnightblue",fontsize="10",style="solid",fontname="Helvetica"];
  Node2 [label="Sokoban.Logic.IUserLogic.\lSaveUser",height=0.2,width=0.4,color="black", fillcolor="white", style="filled",URL="$interface_sokoban_1_1_logic_1_1_i_user_logic.html#ac4d054061a06c8d3ff70da24d2d6400d",tooltip="Save user."];
}
