digraph "Graphical Class Hierarchy"
{
 // LATEX_PDF_SIZE
  edge [fontname="Helvetica",fontsize="10",labelfontname="Helvetica",labelfontsize="10"];
  node [fontname="Helvetica",fontsize="10",shape=record];
  rankdir="LR";
  Node34 [label="IMultiValueConverter",height=0.2,width=0.4,color="grey75", fillcolor="white", style="filled",tooltip=" "];
  Node34 -> Node0 [dir="back",color="midnightblue",fontsize="10",style="solid",fontname="Helvetica"];
  Node0 [label="Sokoban.WpfApp.Converters.\lSettingToViewboxRectConverter",height=0.2,width=0.4,color="black", fillcolor="white", style="filled",URL="$class_sokoban_1_1_wpf_app_1_1_converters_1_1_setting_to_viewbox_rect_converter.html",tooltip="SettingToViewboxRectConverter."];
}
