digraph "Sokoban.Logic.IMusicLogic.LoadMusic"
{
 // LATEX_PDF_SIZE
  edge [fontname="Helvetica",fontsize="10",labelfontname="Helvetica",labelfontsize="10"];
  node [fontname="Helvetica",fontsize="10",shape=record];
  rankdir="RL";
  Node1 [label="Sokoban.Logic.IMusicLogic.\lLoadMusic",height=0.2,width=0.4,color="black", fillcolor="grey75", style="filled", fontcolor="black",tooltip="Load musci."];
  Node1 -> Node2 [dir="back",color="midnightblue",fontsize="10",style="solid",fontname="Helvetica"];
  Node2 [label="Sokoban.ViewModel.MainView\lModel.MainViewModel",height=0.2,width=0.4,color="black", fillcolor="white", style="filled",URL="$class_sokoban_1_1_view_model_1_1_main_view_model.html#a29b003f28d467fbd49ac77f188452a2e",tooltip="Initializes a new instance of the MainViewModel class."];
}
