digraph "Sokoban.Logic.ISettingLogic.LoadPackatSetting"
{
 // LATEX_PDF_SIZE
  edge [fontname="Helvetica",fontsize="10",labelfontname="Helvetica",labelfontsize="10"];
  node [fontname="Helvetica",fontsize="10",shape=record];
  rankdir="RL";
  Node10 [label="Sokoban.Logic.ISettingLogic.\lLoadPackatSetting",height=0.2,width=0.4,color="black", fillcolor="grey75", style="filled", fontcolor="black",tooltip="Load packat setting method."];
  Node10 -> Node11 [dir="back",color="midnightblue",fontsize="10",style="solid",fontname="Helvetica"];
  Node11 [label="Sokoban.ViewModel.Setting\lViewModel.SettingViewModel",height=0.2,width=0.4,color="black", fillcolor="white", style="filled",URL="$class_sokoban_1_1_view_model_1_1_setting_view_model.html#a8a268c122d18b8dcd6e4448d4dbd8ce8",tooltip="Initializes a new instance of the SettingViewModel class."];
}
