digraph "Sokoban.Logic.IUserLogic"
{
 // LATEX_PDF_SIZE
  edge [fontname="Helvetica",fontsize="10",labelfontname="Helvetica",labelfontsize="10"];
  node [fontname="Helvetica",fontsize="10",shape=record];
  Node0 [label="Sokoban.Logic.IUserLogic",height=0.2,width=0.4,color="black", fillcolor="grey75", style="filled", fontcolor="black",tooltip="IUserLogic interface."];
  Node0 -> Node1 [dir="back",color="midnightblue",fontsize="10",style="solid",fontname="Helvetica"];
  Node1 [label="Sokoban.Logic.UserLogic",height=0.2,width=0.4,color="black", fillcolor="white", style="filled",URL="$class_sokoban_1_1_logic_1_1_user_logic.html",tooltip="UserLogic."];
}
